3 Meta-analysis over effect-sizes and model parameters | EcoPostView: Ecological Posterior View
…
3.3.3.2 Setting multiple priors for bayesian model averaging

An important advantage of the Bayesian framework is the ability to incorporate multiple prior distributions (\(k\)), enabling Bayesian Model Averaging (BMA; Hoeting et al., 1999; Hinne et al., 2020). This approach allows one to represent multiple plausible scenarios that could have explained the observed data, and to average over these competing models based on their relative credibility.

To implement BMA, a dataset similar in structure to the single-prior setup is required, but extended to include multiple prior specifications. Each prior distribution typically includes a mean (\(\mu\)) and standard error (\(se\)), just as before.

In many cases, prior weights are assigned to reflect how strongly each prior contributes to the model. These weights range between 0 and 1 and ideally sum to 1 (or 100%). For simplicity, especially when no strong preference among priors exists, equal weighting can be used (e.g., with three priors, each receives a weight of 1/3). Alternatively, when the weights themselves are uncertain, they can be treated as random variables and modeled using a Dirichlet distribution: \(weight \sim Dir(\alpha_i)\) where \(\alpha_i = 1\) for each prior (\(i\)), yielding a uniform Dirichlet distribution.

In the example below, I illustrate this approach using priors with varying values of \(\mu\) and \(se\). For intercept parameters, a broader prior such as \(N(\mu = 0, se = 10)\) is often reasonable, reflecting higher uncertainty.

data("example2")
print(example2)

## # A tibble: 705 × 9
##    doi                    link  group predictor parameter     est    se     n    mean
##    <chr>                  <chr> <chr> <chr>     <chr>       <dbl> <dbl> <dbl>   <dbl>
##  1 10.1127/1863-9135/200… log   Inve… Salinity  b1         0.0697 0.202    10 8.70e+2
##  2 10.1127/1863-9135/200… log   Inve… Oxygen    b1         0.319  0.196    10 8.15e+0
##  3 10.1127/1863-9135/200… log   Inve… Sediment  b1         0.258  0.164    10 3.85e-1
##  4 10.1127/1863-9135/200… logit Inve… Salinity  b1        -0.950  0.723    10 8.70e+2
##  5 10.1127/1863-9135/200… logit Inve… Oxygen    b1        -0.136  0.353    10 8.15e+0
##  6 10.1127/1863-9135/200… logit Inve… Sediment  b1         0.266  0.309    10 3.85e-1
##  7 10.2307/1468008        log   Inve… Sediment  b1        -0.254  0.109    94 9.47e-2
##  8 10.1007/s10530-020-02… logit Inve… Salinity  b1         0.825  0.204    27 2.87e+2
##  9 10.1007/s10530-020-02… log   Fish  Salinity  b1        -0.151  0.143    25 2.86e+2
## 10 10.1007/s10661-021-09… log   Inve… Oxygen    b1        -0.370  0.391    10 2.71e+0
## # ℹ 695 more rows
…
